M48
;Layer_Color=9474304
;FILE_FORMAT=2:3
INCH,LZ
;TYPE=PLATED
T1F00S00C0.012
T2F00S00C0.020
T3F00S00C0.032
T4F00S00C0.035
T5F00S00C0.038
T6F00S00C0.040
T7F00S00C0.051
T8F00S00C0.126
%
T01
X00048Y00035
X00283Y00029
X00267Y00062
X00439Y00157
X0075Y00161
X0098Y00163
X01238Y00166
X01237Y002
X0129Y0011
X01315Y00065
X01415
X01505
X01535Y00115
Y0021
X0162Y00055
X01196Y00064
X02141Y00039
X0213Y0014
X02194Y00197
X03626Y00098
X03374Y00445
X03412Y00581
X03487Y00613
X03626Y00735
X03543Y00888
Y01006
X03442Y01002
X03441Y01064
X03309Y01039
X03313Y00913
X03318Y00805
X03265Y00782
X03234Y00852
X03408Y00811
X03205Y00612
X03642Y01186
X03598Y01441
X03607Y01762
X03379Y01759
X03358Y01651
X03361Y01568
X0327Y01612
X03159Y01637
X03109Y01699
X0297Y01629
X02773Y01675
X02655Y01729
X02649Y01771
X02599Y01738
X0254Y01665
X02555Y01605
X02551Y01525
X02457Y01497
X0245Y01566
X02351Y01596
X02345Y0163
X02339Y01701
X02329Y01738
X02179Y01741
X02119Y01711
X02264Y01626
X02304Y01434
X02349Y01445
X0239Y0134
X0244Y01305
X02181Y01303
X02088Y01379
X01949Y0143
X01943Y01506
X01856Y01507
X01853Y01581
X01742Y01531
X01682Y01555
X01683Y01628
X01708Y0146
X01818Y01439
X01887Y0133
X01893Y01275
X01859
X01656Y01369
X01718Y01072
X01739Y00578
X01706Y00516
X01662Y0027
X02078Y00343
X02111Y00369
X02196Y0036
X02147Y0031
X02307Y00291
X02331Y00365
X02454Y00261
X02483Y0028
X0249Y00234
X02632Y00332
X02667Y0078
Y00817
X02676Y0088
X02714Y00942
X02943Y00954
X03044Y009
X03125Y00929
X03073Y00982
X03069Y01092
X03019Y00757
X03007Y00603
X02829Y00764
X02529Y01049
X02495
X02308Y00669
X02156Y00681
X02658Y01477
X01613Y0146
X01532Y01434
X01508Y014
X0148Y01309
X01371Y01321
X0135Y01294
X01284Y01321
X01236Y01298
X01216Y01326
X01196Y01354
X01175Y01382
X01155Y01411
X01122Y01433
X01063Y01514
X01003
X01014Y01568
X01015Y0162
X01049Y01618
X01114Y01631
X01097Y01726
X0118Y01724
X01197Y01693
X01264Y01712
X0131Y01684
X01344
X01366Y01658
X01366Y01624
X01364Y01713
X01428Y0171
X01403Y01768
X01335Y01769
X01481Y01587
X01453Y01517
X01434Y01484
X01396Y01475
X01371Y01445
X01367Y01373
X01263Y00974
X01303Y0091
X01207Y00738
X01174Y00661
X01175Y00547
X01148Y00478
X01139Y0036
X01176Y0027
X01243Y00235
X01265Y0031
X01291Y00396
X01443Y00394
X01467Y00483
X01549Y00515
X01529Y00624
X0107Y00628
X00887Y00624
X00845Y00605
X00842Y00525
X00758Y00561
X00708Y00577
X00687Y00608
X00645Y00639
X00589Y00647
X00535Y00644
X00511Y00669
X00488Y0075
X00516Y00779
X00552Y00854
X00625Y00856
X00617Y00759
X00681Y0076
X00723Y00761
X00817Y00814
X00865Y00735
X0098Y00768
X00978Y00522
X00981Y00284
X00837Y00286
X00732Y00299
X00666Y00278
X00599Y0029
X00526Y00289
X00491Y00379
X0049Y00433
X00418Y00435
X0042Y00517
X00473Y00526
X0036Y00574
X00361Y00608
X0036Y00644
X00254Y00658
X00206Y00669
X00203Y00721
X00248Y00808
X00452Y00723
X00481Y00866
X00534Y01232
X00615Y01249
X00651Y01233
X00697Y01232
X00717Y01204
X00673Y01206
X00678Y01172
X00737Y01176
X00758Y01148
X00778Y0112
X00811Y01087
X00837Y01109
X00997Y01105
X00929Y01305
X00697Y01324
X00677Y0126
X00523Y01403
X00318Y01326
X00314Y0122
X00273Y01129
X00242Y01434
X0018Y01379
X00088Y01289
X00275Y01553
X00301Y01684
X0062Y01698
Y01661
X00653Y01595
X00859Y01698
X00889Y01727
X00945Y01629
X00972Y01652
X01586Y0167
X01625Y01077
X00897Y00346
X00742Y00411
X00612Y00373
X00563Y00411
X00662Y00524
X00326Y00442
X00271Y00443
X00231Y00376
X00166Y00451
X00171Y00574
X00377Y00385
X00401Y00357
X0006Y00514
X00303Y01782
Y01882
X00296Y01932
X00325Y01982
X0036Y02134
X005Y02096
X00534Y02092
X00609Y02135
X00654Y02087
X0067Y02188
X00556Y02194
X00552Y02239
X00576Y02263
X00604Y02284
X00633Y02304
X00661Y02324
X00689Y02344
X00717Y02365
X00684Y02394
X00635Y02425
X00726Y02447
X00724Y02509
X00693Y02489
X00792Y02488
X00795Y02522
Y02565
X0082Y02603
X00797Y02436
X00908Y02345
X00974
Y02276
Y02206
X00842
Y02276
X00805Y02107
X00825Y02079
X00821Y02039
X0081Y01988
X00841Y01971
X0088Y01956
X00994Y01993
X00993Y02038
X01053Y01931
X01027Y01901
X01066Y01808
X01156Y01835
X01191Y01904
X01195Y01947
X01222Y02003
X01249Y02058
X01278Y02038
X01267Y01897
X0131Y01876
X0128Y01835
X0151Y0183
X01515Y01867
X0145Y01904
X01619Y01864
X01581Y01776
X01608Y02287
X01562Y02403
X01459Y02421
X01431Y02325
X0136Y02373
X01343Y02291
X01256Y023
X01226Y02321
X0113Y02341
X01117Y02375
X01065Y02384
X01025Y02438
X01003Y02465
X01122Y02484
X01078Y02603
X01226Y02565
X01254Y02524
X01285Y02453
X01319Y02449
X01316Y02653
Y02722
X01208Y02706
X01218Y02762
X00971Y02763
X00994Y02735
X00805Y0278
X00471Y02759
X00473Y02905
X00606Y02995
X00666Y03077
X00446Y03119
X00318Y03127
X00298Y03203
X00474Y03238
X00244Y02926
X00253Y02474
X00296Y02368
X00494Y02358
X00495Y02313
X006Y02345
X0052Y02515
X00465Y02556
X00571Y01921
X00575Y01876
X00548Y01835
X0052Y01804
X00731Y01942
X00939Y01802
X0113Y0212
X01084Y02168
X01141Y02208
X01171Y02226
X01399Y02643
X01414Y02879
X0146Y02874
X01514Y02847
X01561Y02845
X01614Y02818
X01585Y02712
X01603Y02523
X01115Y02931
X0014Y02085
X01724Y0203
X01704Y01996
X0171Y01939
X01656Y01922
X01852Y01911
X0188Y01864
X01852Y01992
X01909Y02059
X02014Y02049
Y02088
X02143Y02039
X02149Y01963
X02224Y01917
X02217Y01882
X02291Y01892
X02365Y01911
X02405
X02415Y0199
X02283Y01991
X02327Y02038
X02346Y02072
X02361Y0212
X02307Y02105
X02383Y01818
X02259Y01788
X02213Y01792
X02525Y01935
X02655Y02073
X02853Y02051
X02785Y01915
X02887Y01831
X03009Y01875
X03112Y02008
X03113Y02139
X03007Y02122
X03045Y02313
X03169Y02263
X02782Y02184
X02591Y02566
X02483Y0253
X02355Y02441
X02243Y02446
X02196Y02367
X02135Y02326
X02083Y02256
X0202Y02388
X01955Y02426
X01878Y02389
X0188Y02343
X01826Y02391
X01847Y02259
X01907Y02229
X01833Y02133
X01813Y02104
X01785Y02082
X01773Y02048
X01768Y02291
X01678Y02256
X01684Y0248
X01723Y02469
X01705Y02633
X01682Y02711
X01661Y02739
X01815Y02718
X01805Y02819
X01973Y0291
X02073Y02796
X02346Y02791
X02423Y02863
X02513Y02743
X02603Y02727
X02651Y02862
X02832Y02891
X02776Y02955
X02999Y02937
X03142Y02944
X03136Y02995
X03099Y03061
X03036Y03186
X02862Y03201
X02752Y03203
X02764Y03325
X02651Y03102
X02105Y02512
X03269Y02295
X03326Y02331
X03521Y02333
X03269Y02181
X03409Y02017
X03291Y01809
X03378Y02701
X0328Y02815
X03246Y02818
X03252Y02917
X03209
X03312Y02883
X03315Y0295
X03232Y03037
X03231Y03102
X03599Y03079
X03596Y03314
X03497Y02815
X02993Y03367
X00216Y03346
T02
X03234Y01235
X0332
X0328Y013
X0332Y01375
X03234
X03155
X03068
X0311Y013
X0319
X03154Y01235
X0307
X02904
X02833
X0287Y013
X02902Y01375
X02834Y01376
X01278Y01487
X01235
X01192
Y01531
X01235
X01278
Y01574
X01235
X01192
X00974Y02206
X00908
X00842
Y02276
X00908
X00974
Y02345
X00908
X00842
X02014Y02088
Y02049
X03209Y02917
X03252
T03
X00353Y00086
X00432
X00511
X00589
X00668
X00747
X00826
X00904
X00983
X01062
X02203Y00136
X02281
X0236
X02439
X02435Y00469
X02356
X02278
X02199
X01062Y00954
X00983
X00904
X00826
X00747
X00668
X00589
X00511
X00432
X00353
X0361Y02499
Y02578
T04
X00324Y02662
Y0276
X00389Y03155
X0013
T05
X03225Y00484
X03451Y01515
X03551
X03651
X03125Y00484
X03025
X0284
X0274
X0264
X02474Y00777
X02374
X02274
X02174
X02074
X01974
Y00877
X02074
X02174
X02274
X02374
X02474
Y00977
X02374
X02274
X02174
X02074
X01974
Y01102
X02074
X02174
X02274
X02374
X02474
X01774
X01674
X01669Y00977
Y00877
Y00777
X01769
Y00877
Y00977
X01907Y00618
X0191Y00449
X0181
X0201
X01569Y00777
Y00877
Y00977
X01469
X01369
Y00877
X01469
Y00777
X01369
X01374Y01102
X01274
X01174
X01074
X01474
X01574
X00393Y01398
Y01498
Y01598
Y01698
X00112Y01173
X00113Y01041
X00088Y00879
Y00779
Y00679
Y00579
X00393Y01798
Y01898
X00557Y0257
X00657
X00658Y02719
X00558
X00714Y03002
X00814
X00914
X01014
X01114
X01214
X01314
X01414
X01514
X01614
X01612Y03132
X01512
X01412
X01312
X01212
X01112
Y03232
Y03332
X01212
Y03232
X01312
Y03332
X01412
Y03232
X01512
Y03332
X01612
Y03232
X00865Y03225
X00765
X00665
X01774Y03232
Y03332
X01874
Y03232
X01974
Y03332
X02074
Y03232
X02174
Y03332
X02274
Y03232
Y03132
X02174
X02074
X01974
X01874
X01774
Y03002
X01874
X01974
X02074
X02174
X02274
X02374
X02474
Y03132
Y03232
X02378
Y03332
X02474
X02374Y03132
X03114Y0322
X0258Y022
X0248
Y021
X0258
Y02
X0248
X0324Y02484
Y02584
X03214Y0322
T06
X0324Y01965
Y02065
T07
X01814Y00169
X02011
X02632Y00174
X02829
X03027
X03224
X0355Y01912
Y02108
X0358Y0244
Y02637
T08
X03445Y00275
X03519Y01302
X02574
X00524Y01102
X00293Y00275
X02574Y02402
X03445Y0315
M30
